61000;63;1;292099993;U;1;26/02/2013;Comercial;14;1101140115;TELEFONICA MOVILES DE COLOMBIA S.A.;CR 2 9A 36  ANTENA SC TERMINAL;SALDADA              ;T;1;ITR;67877718;VIT5332;A;P;60;CAMBIO DE TIPO DE INSTALACION;18;62020;2400;30000;18/03/2013;ESTE CLIENTE PASARA DE EMSA A VATIA, SOLICITA ACOMPANAMIENTO;WILFRED.MACHADO;4524;T;T;LAURA.ROJAS;10/05/2013;ACTA REV 2105;18/03/2013;CR 2 9A 36 BRR AY MI LLANURA
61000;48;1;206246114;U;1;09/08/2012;Comercial;4;2112101645;LLANOGAS S.A ESP;AV 23 15-34 BRR COOPERATIVO;SALDADA              ;M;1;;;VIT1016;A;P;60;CAMBIO DE TIPO DE INSTALACION;18;62020;140659;45000;19/06/2013;ESTE CLIENTE CAMBIARA DE COMERCIALIZADOR DE EMSA E.S.P. A DI;RICARDO.CARMONA;4524;T;T;LAURA.ROJAS;05/08/2013;ACTA REV 48112;01/08/2013;CR 34 34 75 BARZAL
61000;63;1;292099993;U;1;26/02/2013;Comercial;14;1101140115;TELEFONICA MOVILES DE COLOMBIA S.A.;CR 2 9A 36  ANTENA SC TERMINAL;SALDADA              ;T;1;ITR;67877718;VIT5332;A;P;60;CAMBIO DE TIPO DE INSTALACION;18;62020;2400;30000;18/03/2013;ESTE CLIENTE PASARA DE EMSA A VATIA, SOLICITA ACOMPANAMIENTO;WILFRED.MACHADO;4524;T;T;LAURA.ROJAS;10/05/2013;ACTA REV 2105;18/03/2013;CR 2 9A 36 BRR AY MI LLANURA
63011;34925;1;318810981;U;1;22/10/2009;Residencial;32;906254379;ANGELA CRISTINA PARRA PATINO;MZ G CS 16 SM 2 CON CIUDAD SALIT;SALDADA              ;M;1;HOL;C0040406363;VIT8941;A;P;94;SUSPENSION COMUN ACUERDO;60;62020;1200;1200;23/10/2009;USUARIO INSISTE RADICAR ... PQR SOLICITUD SUSPENSION DE SERV;AIDE.DIAZ;4524;T;T;SANDRA.CHIPATECUA;04/11/2009;223156;28/10/2009;CL 37 24 115 E SM 2 MZ G CS 16 URB CUIDAD SALITRE
63011;34944;1;155915206;U;1;23/10/2009;Residencial;2;604250839;MARIA ELVIA URREA UBAQUE;CLL 26 C 21 D 58 BRR 20 DE JULIO;SALDADA              ;M;1;MET;80067305;VIT2079;A;Q;58;QUEJA PROCEDIMTO IRREGUL EMSA;12;62020;565;565;23/10/2009;USUARIA SOLICITA REVISION DEL MEDIDOR PUES REGISTRA CONSUMO ;SONIA.GUERRERO;4524;T;T;MARCELA.GALINDO;12/11/2009;;05/11/2009;CL 26C 21D 58 BRR VEINTE DE JULIO
63011;35722;1;242531293;U;313;18/11/2009;Residencial;7;2900180970;OLIBERTO CARDENAS AGUILERA;MZ G  CS 3 VILLA UNION;SALDADA              ;M;1;HOL;71064813;GRT142;A;Q;58;QUEJA PROCEDIMTO IRREGUL EMSA;12;62020;450;4275;20/11/2009;USUARIO PRESENTA QUEJA POR LA SUSPENSION DEL SERVICIO LA CUE;JAIRO.COBO;4524;T;T;SANDRA.CHIPATECUA;29/11/2009;1,63E+15;23/11/2009;CL 27B 3 63 BRR VILLA UNION
63011;35939;1;304219979;U;1;24/11/2009;Residencial;2;604152399;MARIA DORA CASTILLO MARTINEZ;CLL 26 B 20 A 10 PS 2 VAINILLA;SALDADA              ;M;1;HOL;51112491;VIT115;A;P;94;SUSPENSION COMUN ACUERDO;60;62020;2050;2050;03/12/2009;PROPIETARIA DE INMUEBLE SOLICITA SUSPENSION TEMPORAL YA QUE ;SONIA.GUERRERO;4524;T;T;SANDRA.CHIPATECUA;05/01/2010;1,63E+14;23/12/2009;CL 26B 20A 10 P 2 BRR VAINILLA
63011;36140;1;210325779;R;1;01/12/2009;Residencial;25;3212762122;GRACIELA MARQUEZ VDA DE SILVA;FCA EL RINCONCITO VDA APIAY;SALDADA              ;B;1;MET;95701217;APT225;A;P;13;DANOS TECNICO INSTR. MEDICION;10;62020;2150;4660;03/12/2009;CLIENTE INFORMA QUE POR UNA DESCARGA ELECTRICA SE QUEMO EL M;VIVIANA.GUAVITA;4524;T;T;ADRIANA.TELLO;29/12/2009;1,63E+16;23/12/2009;FCA EL RINCONCITO VDA APIAY

