CUENTA;MUNICIPIO;SERVICIO;UBICACION;MEDIDOR;ACTA_VISITA;CONSECUTIVO_REVISION;FECHA_GENERACION;FECHA_REALIZACION;ESTADO;DEPENDENCIA;REVISOR;FECHA_GRABACION; PROYECTO_REVISION
100000949;Villavicencio;FM;R;EST 102006636;;365892;04/02/2014;;Pendiente;CONTROL DE ENERGIA;SYPELC;;22
100148658;Puerto Gaitan;FM;R;HOL 110805384;;368035;18/02/2014;;Pendiente;CONTROL DE ENERGIA;MONTAJES DE INGENIERIA DE COLOMBIA MICOL S.A;;1
100568554;Villavicencio;MM;R;MEG 20100102340;;366324;06/02/2014;;Pendiente;CONTROL DE ENERGIA;MONTAJES DE INGENIERIA DE COLOMBIA MICOL S.A;;51
101045309;Villavicencio;CA;U;EST 101002060;;369454;06/03/2014;;Pendiente;CONTROL DE ENERGIA;SYPELC;;22
101191503;Villavicencio;MM;U;MEG 20100102911;;366325;06/02/2014;;Pendiente;CONTROL DE ENERGIA;MONTAJES DE INGENIERIA DE COLOMBIA MICOL S.A;;51
101504941;Villavicencio;MM;R;MEG 20100102915;;366326;06/02/2014;;Pendiente;CONTROL DE ENERGIA;MONTAJES DE INGENIERIA DE COLOMBIA MICOL S.A;;51
102043794;Villavicencio;CA;U;FYL 1369313;;368817;28/02/2014;;Pendiente;CONTROL DE ENERGIA;SYPELC;;19
102244105;Acacias;MM;U;MEG 20120402072;;365089;28/01/2014;;Pendiente;CONTROL DE ENERGIA;SYPELC;;51
102472882;Villavicencio;MM;U;MEG 20120402219;;365132;28/01/2014;;Pendiente;CONTROL DE ENERGIA;SYPELC;;51
102524648;Villavicencio;FM;U;EST 101003566;;368556;24/02/2014;;Pendiente;CONTROL DE ENERGIA;MONTAJES DE INGENIERIA DE COLOMBIA MICOL S.A;;4
102721821;Puerto Lleras;FM;R;MET 12094014;;368043;18/02/2014;;Pendiente;CONTROL DE ENERGIA;MONTAJES DE INGENIERIA DE COLOMBIA MICOL S.A;;1
102819075;Fuente De Oro;FM;U;MET 12118859;;368044;18/02/2014;;Pendiente;CONTROL DE ENERGIA;MONTAJES DE INGENIERIA DE COLOMBIA MICOL S.A;;1
102902494;Villavicencio;FM;U;EST 101003569;;368638;24/02/2014;;Pendiente;CONTROL DE ENERGIA;MONTAJES DE INGENIERIA DE COLOMBIA MICOL S.A;;4
102903271;Villavicencio;FM;U;EST 101004841;;368639;24/02/2014;;Pendiente;CONTROL DE ENERGIA;MONTAJES DE INGENIERIA DE COLOMBIA MICOL S.A;;4
102904058;Villavicencio;FM;U;EST 101002894;;368640;24/02/2014;;Pendiente;CONTROL DE ENERGIA;MONTAJES DE INGENIERIA DE COLOMBIA MICOL S.A;;4
103002270;Granada;FM;R;EST 102008302;;367244;12/02/2014;;Pendiente;CONTROL DE ENERGIA;MONTAJES DE INGENIERIA DE COLOMBIA MICOL S.A;;8
103039466;Acacias;MM;U;MEG 20120402258;;365095;28/01/2014;;Pendiente;CONTROL DE ENERGIA;SYPELC;;51
103052735;Granada;MM;R;MEG 20120400303;;366447;06/02/2014;;Pendiente;CONTROL DE ENERGIA;MONTAJES DE INGENIERIA DE COLOMBIA MICOL S.A;;51
103082452;Villavicencio;FM;U;MET 12095892;;369281;04/03/2014;;Pendiente;CONTROL DE ENERGIA;SYPELC;;11
103148315;Granada;MM;U;MEG 20120402244;;366053;05/02/2014;;Pendiente;CONTROL DE ENERGIA;SYPELC;;51
103252369;Villavicencio;FM;U;EST 101003568;;368642;24/02/2014;;Pendiente;CONTROL DE ENERGIA;MONTAJES DE INGENIERIA DE COLOMBIA MICOL S.A;;4
103339857;Villavicencio;FM;U;EST 101004842;;368644;24/02/2014;;Pendiente;CONTROL DE ENERGIA;MONTAJES DE INGENIERIA DE COLOMBIA MICOL S.A;;4
