358930;133662727;Villavicencio;INVERSIONES LLANO ROCA LTDA.;CL 19A SUR 38 22 BRR NUEVO HORIZONTE;;U;ABB 2411501;22;FLEON;#N/A
358932;133692444;Villavicencio;OCTAVIO ANDRES LINARES CASTRO;CL 19 SUR 38A 61 NUEVO HORIZONTE;;U;SKA 621067;22;FLEON;#N/A
358934;133707065;Villavicencio;INVERSIONES LLANO ROCA LTDA;CL 19A SUR 38 16 BRR NUEVO HORIZONTE;;U;SKA 621095;22;FLEON;#N/A
;;;;;;;;;;0
359245;167098301;Villavicencio;JUAN NICOLAS TORRES;CL 36 E 20 66 BRR MORICHAL;32;U;848856;1;ARODRIGUEZ;#N/A
359762;294831317;Villavicencio;FELIX VICENTE OVALLE LAMPREA;MZ 22 CS 5 BRR NUEVA COLOMBIA I;;U;50339183;5;ARODRIGUEZ;#N/A
359763;169956032;Villavicencio;ELIECER DE JESUS GOMEZ;MZ 15 CS 4 BRR NUEVA COLOMBIA I;;U;80077681;5;ARODRIGUEZ;#N/A
359764;281246905;Villavicencio;MARIA ADELIA GOMEZ DE ALEJO;MZ 16 CS 8 BRR NUEVA COLOMBIA I;;U;18-36678686;5;ARODRIGUEZ;#N/A
359765;304840235;Villavicencio;SILVINA HERNANDEZ;MZ 16 CS 9 BRR NUEVA COLOMBIA I;;U;60312810;5;ARODRIGUEZ;#N/A
;;;;;;;;;;0
359248;173973952;Villavicencio;JUAN PABLO HERNANDEZ;MZ RQ 15 CRE 23 A 37 A 54 STA INES;3;U;80003162;1;GPARRA;#N/A
358909;176939715;Villavicencio;EDUARDO A FIGUEROA;CL 41 27 14 BRR EMPORIO;;U;ALD 3501875;22;GPARRA;#N/A
359766;288177925;Villavicencio;WILLIAM GIRALDO MOLINA;MZ 16 CS 6 BRR NUEVA COLOMBIA II;;U;50339184;5;GPARRA;#N/A
359767;267112133;Villavicencio;AMINTA MARTINEZ;MZ 18 CS 1 BRR NUEVA COLOMBIA I;;U;28207486;5;GPARRA;#N/A
359768;622715159;Villavicencio;LUZ MERY MARTINEZ GONZALEZ;CL 46D 11 43 47 E MZ 23 CS 20 Y 2 BRR NUEVA COLOMBIA;;U;100128204;5;GPARRA;#N/A
;;;;;;;;;;0
359300;469195242;Villavicencio;RODOLFO CABEZAS SOTELO;FCA VILLA PAOLA VDA UNION;25;R;90103992;1;JCEDENO;#N/A
358940;193074250;Villavicencio;STELLA ALVAREZ;CL 3C 29 41 BRR SANTA MARTHA;FM;U;ISK 18602920;22;JCEDENO;#N/A
358918;269653239;Villavicencio;INVERSIONES NUEVA ESPERANZA LTDA;CR 3 E 17B 10 LC 1 CON NUEVA ESPERANZA;CA;U;PAF 28218438;22;JCEDENO;#N/A
359772;285598941;Villavicencio;ERNESTO UCHIGAY;MZ L CS 13 BRR NUEVO AMANECER;;U;18-37412760;5;JCEDENO;#N/A
359773;268701018;Villavicencio;PEDRO MARTINEZ;MZ I CS 11 BRR NUEVO AMANECER;;U;18-36682628;5;JCEDENO;#N/A
359774;283314309;Villavicencio;MARIA LUISA MATIZ DE SALCEDO;MZ A CS 19 BRR NUEVO AMANECER;;U;18-36681985;5;JCEDENO;#N/A
359775;135813481;Villavicencio;ALVARO ORLANDO AGUILERA;MZ B CS 5 BRR SANTA LIBRADA;;U;18-36679317;5;JCEDENO;#N/A
;;;;;;;;;;0
359769;880136734;Villavicencio;JULIAN ANDRES MEJIA PARRA;MZ B CS 21 BRR SANTA LIBRADA;;U;110190652;5;RGUZMAN;#N/A
359770;283962982;Villavicencio;ANA BERTILDA CHACON DIAZ;MZ C CS 22 BRR SANTA LIBRADA;;U;18-36683003;5;RGUZMAN;#N/A
359771;333256606;Villavicencio;LUZ DELLY BELTRAN LINARES;MZ A CS 11 BRR SANTA LIBRADA;;U;71017421;5;RGUZMAN;#N/A
359776;135991866;Villavicencio;ADELLANIRA GALLO;MZ C CS 10 BRR SANTA LIBRADA;;U;3902;5;RGUZMAN;#N/A
359777;130536604;Villavicencio;ADELAIDA MENDOZA;MZ A CS 5 BRR SANTA LIBRADA;;U;18-36677134;5;RGUZMAN;#N/A
;;;;;;;;;;0
346861;161511141;Villavicencio;MARIA DEL CARMEN LOAIZA;CL 42 19A 03 BRR VILLA FABIOLA;FM;U;HOL 060305719;1;EANGULO;#N/A
358906;141818517;Villavicencio;JOSE HECTOR FORERO HERRERA;CL 9 12 58 66 BRR ESTERO;CA;U;MEG 20120302053;22;EANGULO;#N/A
358925;152008938;Villavicencio;MARIA DE JESUS GONZALEZ;CL 35 20C 43 LC P 2 BRR SAN LUIS;CA;U;PAF 12342256;22;EANGULO;#N/A
;;;;;;;;;;0
338361;381075150;Mesetas;NELSON AVILA;FCA LA ESPERANZA VDA LA CRISTALINA;22;R;ELS 12148599;;WLOPEZ;#N/A
340626;247503605;Mesetas;MARIA ELICENIA VARGAS;CR 4 5 73 VDA MESETAS;1;U;ISK 5863314;;WLOPEZ;#N/A
348257;281517366;Puerto Lleras;LUIS EDUARDO ERAZO;CR 3 6A 34 BRR CENTRO;7;U;PAF 28096453;;WLOPEZ;#N/A
331898;361055718;San Juan de Arama;ORLANDO MARTINEZ REYES;MESA DE FERNADEZ;11;R;HOL 081052729;;WLOPEZ;#N/A
340620;259069371;San Martin;NEPOMUCENO NOGUERA MORALES;FCA SAN GREGORIO Y LAS GUALAS VDA EL CARMEN;1;R;EST 102001093;;WLOPEZ;#N/A
340622;281821934;San Luis de Cubarral;JOSE MANUEL ANZOLA GONZALEZ;FCA LA MESETA VDA SAN MIGUEL;1;R;ALD 2002195;;WLOPEZ;#N/A
;;;;;;;;;;0
359778;212017881;Villavicencio;LUIS CARLOS RODRIGUEZ;KM 27 300 MT ANTES BOMBA VDA ALTO POMPEYA;;R;105707038;5;JGONZALEZ;#N/A
359779;211595465;Villavicencio;INES AMAYA DE GUTIERREZ;FCA EL REGALO VDA ALTO POMPEYA;;R;24321058;5;JGONZALEZ;#N/A
359780;211749752;Villavicencio;CONCEPCION PICO VARGAS;FTE A BOMBA TERPEL POMPEYA POMPEYA;;R;100126717;5;JGONZALEZ;#N/A
359781;606135247;Villavicencio;ROSA PARRADO;CL 6 9 148 FRENTE HOTEL VILLA LAURA ALTO POMPEYA;;R;90113382;5;JGONZALEZ;#N/A
359782;209190897;Villavicencio;RODRIGO DIAZ;WOOD GROUP LT N 1B VDA ALTO POMPEYA;;R;7815351;5;JGONZALEZ;#N/A
