44;162692826;364775;364775-0;REVISION ;25/01/2014;945364775;V ;21;3;  ;  ;;;U ;Villavicencio ;CL 37A 17A 65 E BRR ANTONIO VILLAVICENCIO ;WILLIAM LOPEZ GUERRA ;;;22;  ;071012872;HOL;6274;  ;  ;  ;0;6;69;  ;  ;0;4524;4398;27/01/2014; $ 90.852 ; $ 55.869 ;;;1; $ 146.720,41 ;;;;;;;;;;;;;;;;;;;;;;;;;;;;;;;;;;;;;;;;;;;;;;;;;;;;;;;;;;;;;;;;;;;;;;;;;;;;;;;;;;;;;;;;;;;;;;;;;;;;;;;;;;;;;;;;;;;;;;;;;;;;;;;;;;;;;;;;;;;;;;;;;;;;;;;;;;;;;;;;;;;;;;;;;;;;;;;;;;;;;;;;;;;;;;;;;;;;;;;;;;;;;;;;;;;;;
1;120626755;669566;669566-2;SOLICITUD ;18/01/2014;4813;V ;34;  ;  ;;;;U ;Villavicencio ;CL 50 SUR 32A 21 LC 101 ;JOSE DANIEL MATINEZ ORTIZ ;VIT13299 ;  ;  ;43;  ;  ;  ;9815298025;ELS ;0;112500;  ;  ;  ;  ;2;4524;4399;27/01/2014; $ -   ;;;;1; $ -   ;;;;;;;;;;;;;;;;;;;;;;;;;;;;;;;;;;;;;;;;;;;;;;;;;;;;;;;;;;;;;;;;;;;;;;;;;;;;;;;;;;;;;;;;;;;;;;;;;;;;;;;;;;;;;;;;;;;;;;;;;;;;;;;;;;;;;;;;;;;;;;;;;;;;;;;;;;;;;;;;;;;;;;;;;;;;;;;;;;;;;;;;;;;;;;;;;;;;;;;;;;;;;;;;;;;;;
2;214798107;87;87-1;SOLICITUD ;23/01/2014;4833;V ;34;  ;  ;;;;U ;Villavicencio ;VIA RESTREPO VDA VANGUARDIA ;JOSE DANIEL MATINEZ ORTIZ ;VIT1698 ;  ;  ;43;33024995;ACT ;68128;  ;  ;  ;112500;  ;  ;  ;  ;1;4524;4399;27/01/2014; $ -   ;;;;1; $ -   ;;;;;;;;;;;;;;;;;;;;;;;;;;;;;;;;;;;;;;;;;;;;;;;;;;;;;;;;;;;;;;;;;;;;;;;;;;;;;;;;;;;;;;;;;;;;;;;;;;;;;;;;;;;;;;;;;;;;;;;;;;;;;;;;;;;;;;;;;;;;;;;;;;;;;;;;;;;;;;;;;;;;;;;;;;;;;;;;;;;;;;;;;;;;;;;;;;;;;;;;;;;;;;;;;;;;;
3;298452400;81;81-1;SOLICITUD ;23/01/2014;4839;V ;34;  ;  ;;;;U ;Villavicencio ;LT G BRR SERRAMONTE ;JOSE DANIEL MATINEZ ORTIZ ;VIT6941 ;  ;  ;43;305456;ABB ;0;1167184;ELG ;3;300000;69;  ;  ;  ;1;4524;4399;27/01/2014; $ -   ;;;;1; $ -   ;;;;;;;;;;;;;;;;;;;;;;;;;;;;;;;;;;;;;;;;;;;;;;;;;;;;;;;;;;;;;;;;;;;;;;;;;;;;;;;;;;;;;;;;;;;;;;;;;;;;;;;;;;;;;;;;;;;;;;;;;;;;;;;;;;;;;;;;;;;;;;;;;;;;;;;;;;;;;;;;;;;;;;;;;;;;;;;;;;;;;;;;;;;;;;;;;;;;;;;;;;;;;;;;;;;;;
1;120769559;364199;364199-;REVISION ;04/01/2014;4582;V ;10;  ;  ;;;;U ;Acacias ;CL 16 25 BIS 40 BRR SAN JOSE ;GONZALO NIETO GARCIA ;;;52;  ;  ;  ;  ;20120401775;MEG ;1;75000;  ;  ;  ;  ;;4524;4406;27/01/2014; $ 158.625 ;;;;1,05; $ 166.556,38 ;;;;;;;;;;;;;;;;;;;;;;;;;;;;;;;;;;;;;;;;;;;;;;;;;;;;;;;;;;;;;;;;;;;;;;;;;;;;;;;;;;;;;;;;;;;;;;;;;;;;;;;;;;;;;;;;;;;;;;;;;;;;;;;;;;;;;;;;;;;;;;;;;;;;;;;;;;;;;;;;;;;;;;;;;;;;;;;;;;;;;;;;;;;;;;;;;;;;;;;;;;;;;;;;;;;;;
2;121127576;364680;364680-;REVISION ;10/01/2014;4598;V ;10;  ;  ;;;;R ;Granada ;KM 1 VIA A FUENTE DE ORO MOTEL CAMPO AMOR ;GONZALO NIETO GARCIA ;;;52;  ;  ;  ;  ;20120401835;MEG ;1;75000;  ;  ;  ;  ;;4524;4406;27/01/2014; $ 182.539 ;;;;1,15; $ 209.919,83 ;;;;;;;;;;;;;;;;;;;;;;;;;;;;;;;;;;;;;;;;;;;;;;;;;;;;;;;;;;;;;;;;;;;;;;;;;;;;;;;;;;;;;;;;;;;;;;;;;;;;;;;;;;;;;;;;;;;;;;;;;;;;;;;;;;;;;;;;;;;;;;;;;;;;;;;;;;;;;;;;;;;;;;;;;;;;;;;;;;;;;;;;;;;;;;;;;;;;;;;;;;;;;;;;;;;;;
3;121131753;364679;364679-;REVISION ;13/01/2014;4751;V ;10;  ;  ;;;;U ;Villavicencio ;CR 26 4A 32 MZ S LT 5 BRR ALBORADA ANTENA COMCEL S A ;GONZALO NIETO GARCIA ;;;52;  ;  ;  ;  ;20120401840;MEG ;1;30000;  ;  ;  ;  ;;4524;4406;27/01/2014; $ 158.625 ;;;;1; $ 158.625,12 ;;;;;;;;;;;;;;;;;;;;;;;;;;;;;;;;;;;;;;;;;;;;;;;;;;;;;;;;;;;;;;;;;;;;;;;;;;;;;;;;;;;;;;;;;;;;;;;;;;;;;;;;;;;;;;;;;;;;;;;;;;;;;;;;;;;;;;;;;;;;;;;;;;;;;;;;;;;;;;;;;;;;;;;;;;;;;;;;;;;;;;;;;;;;;;;;;;;;;;;;;;;;;;;;;;;;;
4;121135881;364678;364678-;REVISION ;14/01/2014;4754;V ;10;  ;  ;;;;U ;Granada ;MZ 3 CS 2 BRR VILLA CAMILA ;GONZALO NIETO GARCIA ;;;52;  ;  ;  ;  ;20120401845;MEG ;1;75000;  ;  ;  ;  ;;4524;4406;27/01/2014; $ 158.625 ;;;;1,15; $ 182.418,89 ;;;;;;;;;;;;;;;;;;;;;;;;;;;;;;;;;;;;;;;;;;;;;;;;;;;;;;;;;;;;;;;;;;;;;;;;;;;;;;;;;;;;;;;;;;;;;;;;;;;;;;;;;;;;;;;;;;;;;;;;;;;;;;;;;;;;;;;;;;;;;;;;;;;;;;;;;;;;;;;;;;;;;;;;;;;;;;;;;;;;;;;;;;;;;;;;;;;;;;;;;;;;;;;;;;;;;
5;298605710;363602;363602-;REVISION ;23/01/2014;4775;V ;27;12;  ;;;;R ;Granada ;TALLER AGRICOLA EL ARIARI INSP PUERTA BRAVA ;GONZALO NIETO GARCIA ;;;52;  ;41253435;ISK ;3311;20120401898;MEG ;1;30000;102;69;  ;  ;;4524;4406;27/01/2014; $ 213.972 ; $ 152.778 ;;;1,15; $ 421.762,33 ;;;;;;;;;;;;;;;;;;;;;;;;;;;;;;;;;;;;;;;;;;;;;;;;;;;;;;;;;;;;;;;;;;;;;;;;;;;;;;;;;;;;;;;;;;;;;;;;;;;;;;;;;;;;;;;;;;;;;;;;;;;;;;;;;;;;;;;;;;;;;;;;;;;;;;;;;;;;;;;;;;;;;;;;;;;;;;;;;;;;;;;;;;;;;;;;;;;;;;;;;;;;;;;;;;;;;
6;298697435;363610;363610-;REVISION ;23/01/2014;4779;V ;27;14;  ;;;;R ;Granada ;ESTACION AGRICOLA PUERTA BRAVA ;GONZALO NIETO GARCIA ;;;52;  ;41253598;ISK ;5273;  ;  ;  ;30000;69;  ;  ;  ;;4524;4406;27/01/2014; $ 213.972 ; $ 119.108 ;;;1,15; $ 383.041,24 ;;;;;;;;;;;;;;;;;;;;;;;;;;;;;;;;;;;;;;;;;;;;;;;;;;;;;;;;;;;;;;;;;;;;;;;;;;;;;;;;;;;;;;;;;;;;;;;;;;;;;;;;;;;;;;;;;;;;;;;;;;;;;;;;;;;;;;;;;;;;;;;;;;;;;;;;;;;;;;;;;;;;;;;;;;;;;;;;;;;;;;;;;;;;;;;;;;;;;;;;;;;;;;;;;;;;;
