CUENTA;MUNICIPIO;SERVICIO;UBICACION;MEDIDOR;;ACTA_VISITA;CONSECUTIVO_REVISION;FECHA_GENERACION;FECHA_REALIZACION;ESTADO;DEPENDENCIA;REVISOR;FECHA_GRABACION; PROYECTO_REVISION;NODO;OBS_CANCELA;FECHA_REVISION;CAMPANA
100000949;Villavicencio;FM;R;EST;102006636;;365892;04/02/2014;;Pendiente;CONTROL DE ENERGIA;SYPELC;;22;APT8233;;;1280
100148658;Puerto Gaitan;FM;R;HOL;110805384;;368035;18/02/2014;;Pendiente;CONTROL DE ENERGIA;MONTAJES DE INGENIERIA DE COLOMBIA MICOL S.A;;1;PGT142;;;1347
100210442;Villavicencio;FM;R;EST;101001385;319364547;364547;23/01/2014;27/01/2014;Revisada;CONTROL DE ENERGIA;SYPELC;29/01/2014;22;V2T10076;;29/01/2014;1280
100323529;Restrepo;FM;R;SCO;8285087;233673;363175;03/01/2014;07/01/2014;Liquidada;CONTROL DE ENERGIA;MONTAJES DE INGENIERIA DE COLOMBIA MICOL S.A;19/02/2014;9;R1T134;;;1351
100323529;Restrepo;FM;R;SCO;8285087;;368163;19/02/2014;19/02/2014;Revisada;CONTROL DE ENERGIA;SERVIENTREGA S A;19/02/2014;16;R1T134;;19/02/2014;
100352469;Restrepo;FM;R;MET;12002302;;365590;30/01/2014;30/01/2014;Revisada;CONTROL DE ENERGIA;SERVIENTREGA S A;30/01/2014;16;R1T243;;30/01/2014;
100479543;Puerto Lopez;FM;R;SCO;8297926;234253;363474;08/01/2014;13/01/2014;Revisada;CONTROL DE ENERGIA;MONTAJES DE INGENIERIA DE COLOMBIA MICOL S.A;15/01/2014;9;PLT11924;;15/01/2014;1310
100514961;Villavicencio;FM;U;HOL;120206064;233089;365074;27/01/2014;29/01/2014;Revisada;CONTROL DE ENERGIA;MONTAJES DE INGENIERIA DE COLOMBIA MICOL S.A;31/01/2014;22;VIT234;;31/01/2014;1280
100568554;Villavicencio;MM;R;MEG;20100102340;;366324;06/02/2014;;Pendiente;CONTROL DE ENERGIA;MONTAJES DE INGENIERIA DE COLOMBIA MICOL S.A;;51;V2T11684;;;1319
100578423;Granada;FM;U;SCO;8288797;234804;363475;08/01/2014;17/01/2014;Revisada;CONTROL DE ENERGIA;MONTAJES DE INGENIERIA DE COLOMBIA MICOL S.A;21/01/2014;9;SGT11349;;21/01/2014;1310
100592589;San Luis de Cubarral;FM;R;SCO;8298049;235862;364225;20/01/2014;06/02/2014;Notificada;CONTROL DE ENERGIA;MONTAJES DE INGENIERIA DE COLOMBIA MICOL S.A;22/02/2014;11;C2T24;;;1355
100652750;Villavicencio;FM;R;EST;101001514;32364548;364548;23/01/2014;25/01/2014;Revisada;CONTROL DE ENERGIA;SYPELC;28/01/2014;22;V2T10974;;28/01/2014;1280
100955492;Villavicencio;FM;U;HOL;110807172;944364549;364549;23/01/2014;24/01/2014;Revisada;CONTROL DE ENERGIA;SYPELC;28/01/2014;22;VIT1681;;28/01/2014;1280
101045309;Villavicencio;CA;U;EST;101002060;;369454;06/03/2014;;Pendiente;CONTROL DE ENERGIA;SYPELC;;22;VIT2001;;;1280
101191503;Villavicencio;MM;U;MEG;20100102911;;366325;06/02/2014;;Pendiente;CONTROL DE ENERGIA;MONTAJES DE INGENIERIA DE COLOMBIA MICOL S.A;;51;VIT12000;;;1319
101504941;Villavicencio;MM;R;MEG;20100102915;;366326;06/02/2014;;Pendiente;CONTROL DE ENERGIA;MONTAJES DE INGENIERIA DE COLOMBIA MICOL S.A;;51;V2T11494;;;1319
