Dependencia;Solicitud;Consecutivo;Cuenta;Ubicacion;Municipio;Fecha_grabacion;Clase_servicio;Ciclo;Ruta;Nombre_usuario; Direccion;Descripcion;Tipo_instalacion;Factor_multiplicacion;Marca;Serie;Nodo;Tipo_energia;Clase_solicitud;Tipo_solicitud;Desc_tipo_solicitud;Tipo_accion;Dependencia_asignada;Carga_contratada;Carga_instalada;;;;;;;;;;;
Fecha_Asignacion;Observacion;Usuario_grabacion;Funcionario_asignado;Estado_Sol;Estado_Accion;Usuario_Respuesta;Fecha_Respuesta;Doc_Soporte;Fecha_Realizacion;Direccion_Cuenta;;;;;;;;;;;;;;;;;;;;;;;;;;
61000;48;1;206246114;U;1;09/08/2012;Comercial;4;2112101665;LLANOGAS S.A ESP;AV 23 15-34 BRR COOPERATIVO;SALDADA              ;M;1;;;VIT1016;A;P;60;CAMBIO DE TIPO DE INSTALACION;18;62020;140659;45000;19/06/2013;ESTE CLIENTE CAMBIARA DE COMERCIALIZADOR DE EMSA E.S.P. A DI;RICARDO.CARMONA;4524;T;T;LAURA.ROJAS;05-ago-13;ACTA REV 48112;01/08/2013;CR 34 34 75 BARZAL
61000;63;1;292099993;U;1;26/02/2013;Comercial;14;1101140115;TELEFONICA MOVILES DE COLOMBIA S.A.;CR 2 9A 36  ANTENA SC TERMINAL;ACTIVA;T;1;ITR;67877718;VIT5332;A;P;60;CAMBIO DE TIPO DE INSTALACION;18;62020;2400;30000;18/03/2013;ESTE CLIENTE PASARA DE EMSA A VATIA, SOLICITA ACOMPAÑAMIENTO;WILFRED.MACHADO;4524;T;T;LAURA.ROJAS;10-may-13;ACTA REV 2105;18/03/2013;CR 2 9A 36 BRR AY MI LLANURA
61000;64;1;177205280;U;1;26/02/2013;Comercial;14;1100010130;TELEFONICA MOVILES DE COLOMBIA S.A.;CR 2 9A 36  ANTENA SC TERMINAL;SALDADA              ;T;1;ITR;67877743;VIT981;A;P;60;CAMBIO DE TIPO DE INSTALACION;18;62020;18000;500000;19/03/2013;ESTE CLIENTE PASARA DE EMSA A VATIA, SOLICITAN ACOMPAÑAMIENT;WILFRED.MACHADO;4524;T;T;LAURA.ROJAS;09-may-13;ACTA REV 2117;19/03/2013;ED COMTE GANADEROS P 1 OF 501 BRR CENTRO
61000;66;1;268095758;U;1;27/05/2013;Oleocoa;12;1101120130;OLEOCOA;KM.10 VIA ACACIAS;RECONECTADA;T;1;ACT;36004565;VIT3593;A;P;60;CAMBIO DE TIPO DE INSTALACION;18;62020;1000000;1600000;30/05/2013;POR FAVOR REVISAR BANCO DE CONDENSADORES, CON EL FIN DE VERI;ALICIA.GAONA;4524;T;T;LAURA.ROJAS;20-jun-13;ACTA REV 2412;12/06/2013;KM 10 VIA ACACIAS
61000;67;1;907756110;R;573;27/05/2013;Industrial;9;6300050046;BIOENERGY S.A.;FCA LA ESPERANZA VDA ANGOSTURA L;SALDADA              ;T;220;ELS;13018007;P2T11655;A;P;60;CAMBIO DE TIPO DE INSTALACION;18;62020;8000;225000;30/05/2013;FAVOR REVISAR BANCO DE CONDENSADORES EN RAZON DE QUE ESTA RE;ALICIA.GAONA;4524;T;T;LAURA.ROJAS;11-jul-13;ACTA REV 2702;04/06/2013;FCA LA ESPERANZA PLANTA DE PROC LA MIELERA VDA LA BALSA
61000;69;1;214458210;U;1;04/07/2013;Industrial;15;8000300301;TRIARCOL LTDA;LA ISLA VIA APTO.LOPEZ;SALDADA              ;T;60;ELS;7889363;APT320;A;P;60;CAMBIO DE TIPO DE INSTALACION;18;62020;112500;225000;15/07/2013;ESTE CLIENTE DESEA VINCULARSE AL MERCADO NO REGULADO EMSA. F;GLENDA.MEDINA;4524;T;T;LAURA.ROJAS;26-jul-13;ACTA REV 2749;15/07/2013;LA ISLA VIA PTO LOPEZ VDA STA ROSA
61000;70;1;111941191;U;1;11/07/2013;INDUSTRIALES EXENTOS;16;9000303949;GRAMAL SAS;MOLINO COOMEAGRO KM 1 BALMORAL VDA BARCELONA;SALDADA              ;T;1;;;MAT0101;A;P;60;CAMBIO DE TIPO DE INSTALACION;18;62020;0;1500000;17/07/2013;ESTE CLIENTE DESEA VINCULARSE AL MERCADO NO REGULADO CON EMS;GLENDA.MEDINA;4524;T;T;LAURA.ROJAS;26-jul-13;ACTA REV 2814;17/07/2013;MOLINO COOMEAGRO KM 1 BALMORAL VDA BARCELONA
61000;71;1;107166115;U;1;12/07/2013;Comercial;14;1100010120;CENTROS COMERCIALES DEL LLANO S A S;CR 22  8  285 PARTE POSTERIOR NA;ACTIVA;T;1;;;VIT12588;A;P;60;CAMBIO DE TIPO DE INSTALACION;18;62020;8000;1430000;10/04/2013;CAMBIO DE COMERCIALIZADOR;WILFRED.MACHADO;4524;T;T;LAURA.ROJAS;26-jul-13;ACTA REV 20762;10/04/2013;CR 22 8 285 CC UNICO
61000;71;2;107166115;U;1;12/07/2013;Comercial;14;1100010120;CENTROS COMERCIALES DEL LLANO S A S;CR 22  8  285 PARTE POSTERIOR NA;ACTIVA;T;1;;;VIT12588;A;P;60;CAMBIO DE TIPO DE INSTALACION;18;62020;8000;1430000;09/05/2013;CAMBIO DE COMERCIALIZADOR;WILFRED.MACHADO;4524;T;T;LAURA.ROJAS;26-jul-13;ACTA REV 20906;09/05/2013;CR 22 8 285 CC UNICO
61000;73;1;213651316;U;1;30/07/2013;Comercial;14;1100010205;MERCEDES GIL DE MENDOZA;LA PALMA K 12 A P LOPEZ;ACTIVA;T;40;ELG;1092815;APT145;A;P;60;CAMBIO DE TIPO DE INSTALACION;18;62020;75000;75000;23/07/2013;CAMBIO DE COMERCIALIZADOR A DICEL;WILFRED.MACHADO;4524;T;T;LAURA.ROJAS;13-ago-13;ACTA REV 2828;23/07/2013;FCA POTRA VDA LA LLANERITA
61000;74;1;226051148;U;6;01/08/2013;INDUSTRIALES EXENTOS;15;8100350425;INDUSTRIA ARROCERA SUPERIOR L.;CL 12   13 74  BRR CENTRO;SALDADA              ;T;1150;ELS;14966393;ACT10901;A;P;60;CAMBIO DE TIPO DE INSTALACION;18;62020;400000;400000;09/10/2013;ESTE CLIENTE DESEA VINCULARSE EN MERCADO NO REGULADO. FAVOR ;ALICIA.GAONA;4524;T;T;LAURA.ROJAS;30-oct-13;ACTA REV 3789;18/10/2013;CL 12 13 73 BRR CENTRO
61000;75;1;214798107;U;1;08/08/2013;Oficial;16;9000305442;AEROCIVIL VANGUARDIA NAL;VIA RESTREPO  VDA VANGUARDIA;SALDADA              ;T;60;ACT;33024995;VIT1698;A;P;60;CAMBIO DE TIPO DE INSTALACION;18;62020;225000;112500;09/08/2013;FAVOR IDENTIFICAR PROPIEDAD DE LOS ACTIVOS ELECTRICOS Y EMIT;ALICIA.GAONA;4524;T;T;LAURA.ROJAS;16-ago-13;ACTA REV 30358;13/08/2013;VIA RESTREPO VDA VANGUARDIA
61000;76;1;275258217;U;1;20/08/2013;Uso del STR-SDL;13;1100010015;DICEL;CL 64N 5B 146 OFC 39 - CALI;SALDADA              ;T;1;;;1;A;P;60;CAMBIO DE TIPO DE INSTALACION;18;62020;1;112500;20/08/2013;DICEL S.A. E.S.P., REQUIERE COORDINAR RETIRO DE SELLOS EN LA;ALICIA.GAONA;4524;T;T;LAURA.ROJAS;29-ago-13;ACTA REV 2907;21/08/2013;CL 64 5B 146 OF 39  CALI
61000;76;2;275258217;U;1;20/08/2013;Uso del STR-SDL;13;1100010015;DICEL;CL 64N 5B 146 OFC 39 - CALI;SALDADA              ;T;1;;;1;A;P;60;CAMBIO DE TIPO DE INSTALACION;18;62020;1;112500;18/06/2013;DICEL S.A. E.S.P., REQUIERE COORDINAR RETIRO DE SELLOS EN LA;ALICIA.GAONA;4524;T;T;LAURA.ROJAS;01-oct-13;ACTA REV 2442;18/06/2013;CL 64 5B 146 OF 39  CALI
61000;77;1;111941191;U;1;21/08/2013;INDUSTRIALES EXENTOS;16;9000303949;GRAMALL S A S;FINCA BONAIRE KM. 7 VIA ACACIAS;SALDADA              ;T;1;;;MAT0101;A;P;60;CAMBIO DE TIPO DE INSTALACION;18;62020;0;1500000;22/08/2013;ESTE CLIENTE SE VINCULARA EN MERCADO NO REGULADO, FAVOR EMIT;ALICIA.GAONA;4524;T;T;LAURA.ROJAS;03-sep-13;ACTA REV 2925;26/08/2013;MOLINO COOMEAGRO KM 1 BALMORAL VDA BARCELONA
61000;78;1;226049525;U;6;22/08/2013;Industrial;15;8100350010;PLANTA DE TRITURADOS;TRITURADORA GUAYURIBA VDA GUAYUR;SALDADA              ;T;1725;ACT;33024972;ACT9130;A;P;60;CAMBIO DE TIPO DE INSTALACION;18;62020;500000;500000;22/08/2013;ESTE CLIENTE DESEA VINCULARSE EN EL MERCADO NO REGULADO CON ;ALICIA.GAONA;4524;T;T;LAURA.ROJAS;30-sep-13;ACTA REV 3683;18/09/2013;TRITURADORA GUAYURIBA VDA GUAYURIBA
61000;80;1;301359665;U;1;09/09/2013;Comercial;14;1100010065;INVERSIONES GIL S.A;AV 40 26C 10  LC 1 18 BRR EL MAI;PARA SUSPENSION      ;T;1;ITR;68853806;VIT8204;A;P;60;CAMBIO DE TIPO DE INSTALACION;18;62020;5880;1250000;01/08/2013;CAMBIO DE COMERCIALIZADOR DE EMSA  A DICEL CLIENTE INVERSION;WILFRED.MACHADO;4524;T;T;LAURA.ROJAS;09-oct-13;ACTA REV 2857;01/08/2013;AV 40 26C 10 LC 321 CC UNICENTRO
61000;81;1;298452400;U;1;16/10/2013;GASCO SERRAMONTE;14;1100010035;GASCO;CRA 22 8C 320  FTE POSTOBON;SALDADA              ;T;1;ELG;1167184;VIT6941;A;P;60;CAMBIO DE TIPO DE INSTALACION;43;62020;300000;300000;23/10/2013;FAVOR REVISAR MEDIDOR Y TOMAR REGISTRO DE LECTURA.;ALICIA.GAONA;4524;A;T;LAURA.ROJAS;30-ene-14;ACTA REV4839;23/01/2014;LT G BRR SERRAMONTE
