CUENTA;MUNICIPIO;SERVICIO;UBICACION;MEDIDOR_MARCA;MEDIDOR_SERIE;ACTA_VISITA;CONSECUTIVO_REVISION;FECHA_GENERACION;FECHA_REALIZACION;ESTADO;DEPENDENCIA;REVISOR;FECHA_GRABACION; PROYECTO_REVISION
100000949;Villavicencio;FM;R;EST;102006636;;365892;04/02/2014;;Pendiente;CONTROL DE ENERGIA;SYPELC;;22
100065298;Villavicencio;MM;U;MEG;20120402103;;344933;05/07/2013;;Pendiente;CONTROL DE ENERGIA;MONTAJES DE INGENIERIA DE COLOMBIA MICOL S.A;;51
100068639;Villavicencio;MM;U;MEG;20120402105;;344937;05/07/2013;;Pendiente;CONTROL DE ENERGIA;MONTAJES DE INGENIERIA DE COLOMBIA MICOL S.A;;51
100070252;Villavicencio;MM;U;MEG;20120400411;;360461;06/12/2013;;Pendiente;CONTROL DE ENERGIA;MONTAJES DE INGENIERIA DE COLOMBIA MICOL S.A;;51
100347405;Villavicencio;MM;U;MEG;20120402108;;344934;05/07/2013;;Pendiente;CONTROL DE ENERGIA;MONTAJES DE INGENIERIA DE COLOMBIA MICOL S.A;;51
100348282;Villavicencio;MM;U;MEG;20120402109;;344936;05/07/2013;;Pendiente;CONTROL DE ENERGIA;MONTAJES DE INGENIERIA DE COLOMBIA MICOL S.A;;51
100592589;San Luis de Cubarral;FM;R;HOL;110807348;;364225;20/01/2014;;Pendiente;CONTROL DE ENERGIA;MONTAJES DE INGENIERIA DE COLOMBIA MICOL S.A;;11
102185601;Lejanias;FM;U;OSA;1000889;;360198;03/12/2013;;Pendiente;CONTROL DE ENERGIA;MONTAJES DE INGENIERIA DE COLOMBIA MICOL S.A;;1
102244105;Acacias;MM;U;MEG;20120402072;;365089;28/01/2014;;Pendiente;CONTROL DE ENERGIA;SYPELC;;51
102472882;Villavicencio;MM;U;MEG;20120402219;;365132;28/01/2014;;Pendiente;CONTROL DE ENERGIA;SYPELC;;51
102667342;Guamal;MM;U;MEG;20120402084;;360426;06/12/2013;;Pendiente;CONTROL DE ENERGIA;MONTAJES DE INGENIERIA DE COLOMBIA MICOL S.A;;51
102670742;Guamal;MM;U;MEG;20120402151;;360424;06/12/2013;;Pendiente;CONTROL DE ENERGIA;MONTAJES DE INGENIERIA DE COLOMBIA MICOL S.A;;51
103039466;Acacias;MM;U;MEG;20120402258;;365095;28/01/2014;;Pendiente;CONTROL DE ENERGIA;SYPELC;;51
103046994;San Martin;MM;U;MEG;20120402257;;360660;10/12/2013;;Pendiente;CONTROL DE ENERGIA;SYPELC;;51
103071706;Villavicencio;MM;U;MEG;20100103143;;351437;19/09/2013;;Pendiente;CONTROL DE ENERGIA;SYPELC;;51
103139223;Villavicencio;MM;U;MEG;20120402171;;351429;19/09/2013;;Pendiente;CONTROL DE ENERGIA;SYPELC;;51
103142623;Villavicencio;MM;U;MEG;20120402241;;336275;10/04/2013;;Pendiente;CONTROL DE ENERGIA;SYPELC;;51
103148315;Granada;MM;U;MEG;20120402244;;366053;05/02/2014;;Pendiente;CONTROL DE ENERGIA;SYPELC;;51
103184883;Granada;MM;U;MEG;20120402238;;363597;10/01/2014;;Pendiente;CONTROL DE ENERGIA;SYPELC;;52
103187124;Villavicencio;MM;U;MEG;20120402240;;351438;19/09/2013;;Pendiente;CONTROL DE ENERGIA;SYPELC;;51
103362005;Acacias;MM;U;MEG;20120402260;;360639;10/12/2013;;Pendiente;CONTROL DE ENERGIA;SYPELC;;51
103379443;Acacias;MM;U;MEG;20120400306;;360638;10/12/2013;;Pendiente;CONTROL DE ENERGIA;SYPELC;;51
103380289;Villavicencio;MM;U;MEG;20120402130;;365047;27/01/2014;;Pendiente;CONTROL DE ENERGIA;MONTAJES DE INGENIERIA DE COLOMBIA MICOL S.A;;51